mp01 – STA 9750 2024 Submission Material
…
#formatting table using gt package
total_VRM_by_agency_formatted <- total_VRM_by_agency |>
  mutate(Total_VRM = comma(Total_VRM, accuracy =1)) 

#printing formatted table 
print(total_VRM_by_agency_formatted)

# A tibble: 677 × 2
   Agency                                                              Total_VRM
   <chr>                                                               <chr>    
 1 MTA New York City Transit                                           10,832,8…
 2 New Jersey Transit Corporation                                      5,645,52…
 3 Los Angeles County Metropolitan Transportation Authority            4,354,01…
 4 Washington Metropolitan Area Transit Authority                      2,821,95…
 5 Chicago Transit Authority                                           2,806,20…
 6 Southeastern Pennsylvania Transportation Authority                  2,672,63…
 7 Massachusetts Bay Transportation Authority                          2,383,96…
 8 Pace, the Suburban Bus Division of the Regional Transportation Aut… 2,379,40…
 9 Metropolitan Transit Authority of Harris County, Texas              2,272,94…
10 Denver Regional Transportation District                             1,991,41…
# ℹ 667 more rows
…
# 1. Which transit system (agency and mode) had the most UPT in 2022?
#table summarizing the total UPT for each agency and mode 
UPT_summary_agency_mode <- USAGE_AND_FINANCIALS |> 
  group_by(Agency, Mode) |>
  summarize(Total_UPT = sum(UPT, na.rm = TRUE)) |>
  arrange(desc(Total_UPT)) 

`summarise()` has grouped output by 'Agency'. You can override using the
`.groups` argument.

#printing summary table 
print(UPT_summary_agency_mode)

# A tibble: 1,129 × 3
# Groups:   Agency [525]
   Agency                                                   Mode       Total_UPT
   <chr>                                                    <chr>          <dbl>
 1 MTA New York City Transit                                Heavy Rail    1.79e9
 2 MTA New York City Transit                                Bus           4.59e8
 3 Los Angeles County Metropolitan Transportation Authority Bus           1.94e8
 4 Chicago Transit Authority                                Bus           1.40e8
 5 New Jersey Transit Corporation                           Bus           1.13e8
 6 Chicago Transit Authority                                Heavy Rail    1.04e8
 7 MTA Bus Company                                          Bus           1.00e8
 8 Washington Metropolitan Area Transit Authority           Heavy Rail    9.84e7
 9 Southeastern Pennsylvania Transportation Authority       Bus           9.66e7
10 Washington Metropolitan Area Transit Authority           Bus           8.99e7
# ℹ 1,119 more rows
…
