Final Project - Individual Report – STA 9750 2024 Submission Material
…
Filter for state-level unemployment rates

Code

# Filter for state-level unemployment rate series
state_unemployment_series <- unemployment_search |>
  filter(grepl("unemployment rate", title, ignore.case = TRUE)) |>
  filter(grepl("state", title, ignore.case = TRUE))

# View possible state-specific series
state_unemployment_series

# A tibble: 24 × 16
   id        realtime_start realtime_end title observation_start observation_end
   <chr>     <chr>          <chr>        <chr> <chr>             <chr>          
 1 M0892AUS… 2024-12-10     2024-12-10   Unem… 1929-04-01        1942-06-01     
 2 Q0892BUS… 2024-12-10     2024-12-10   Unem… 1940-04-01        1946-10-01     
 3 M0892BUS… 2024-12-10     2024-12-10   Unem… 1940-01-01        1946-12-01     
 4 M0892CUS… 2024-12-10     2024-12-10   Unem… 1947-01-01        1966-12-01     
 5 LRUN64TT… 2024-12-10     2024-12-10   Infr… 1970-01-01        2024-07-01     
 6 LRUN64TT… 2024-12-10     2024-12-10   Infr… 1970-01-01        2024-10-01     
 7 LRUN64TT… 2024-12-10     2024-12-10   Infr… 1955-01-01        2023-01-01     
 8 LRUN64TT… 2024-12-10     2024-12-10   Infr… 1955-01-01        2023-01-01     
 9 LRUN64TT… 2024-12-10     2024-12-10   Infr… 1955-01-01        2024-07-01     
10 LRUN64TT… 2024-12-10     2024-12-10   Infr… 1955-01-01        2024-10-01     
# ℹ 14 more rows
# ℹ 10 more variables: frequency <chr>, frequency_short <chr>, units <chr>,
#   units_short <chr>, seasonal_adjustment <chr>,
#   seasonal_adjustment_short <chr>, last_updated <chr>, popularity <int>,
#   group_popularity <int>, notes <chr>
…
# Filter for state unemployment series, need UR for seasonally adjusted
state_unemployment_series <- unemployment_search |>
  filter(id %in% paste0(state_abbreviations, "UR"))

# View the filtered series
state_unemployment_series

# A tibble: 50 × 16
   id    realtime_start realtime_end title     observation_start observation_end
   <chr> <chr>          <chr>        <chr>     <chr>             <chr>          
 1 CAUR  2024-12-10     2024-12-10   Unemploy… 1976-01-01        2024-10-01     
 2 TXUR  2024-12-10     2024-12-10   Unemploy… 1976-01-01        2024-10-01     
 3 NYUR  2024-12-10     2024-12-10   Unemploy… 1976-01-01        2024-10-01     
 4 FLUR  2024-12-10     2024-12-10   Unemploy… 1976-01-01        2024-10-01     
 5 PAUR  2024-12-10     2024-12-10   Unemploy… 1976-01-01        2024-10-01     
 6 OHUR  2024-12-10     2024-12-10   Unemploy… 1976-01-01        2024-10-01     
 7 MIUR  2024-12-10     2024-12-10   Unemploy… 1976-01-01        2024-10-01     
 8 ALUR  2024-12-10     2024-12-10   Unemploy… 1976-01-01        2024-10-01     
 9 MAUR  2024-12-10     2024-12-10   Unemploy… 1976-01-01        2024-10-01     
10 NCUR  2024-12-10     2024-12-10   Unemploy… 1976-01-01        2024-10-01     
# ℹ 40 more rows
# ℹ 10 more variables: frequency <chr>, frequency_short <chr>, units <chr>,
#   units_short <chr>, seasonal_adjustment <chr>,
#   seasonal_adjustment_short <chr>, last_updated <chr>, popularity <int>,
#   group_popularity <int>, notes <chr>
…
